%YAML 1.1
%TAG !u! tag:unity3d.com,2011:
--- !u!114 &11400000
MonoBehaviour:
  m_ObjectHideFlags: 0
  m_CorrespondingSourceObject: {fileID: 0}
  m_PrefabInstance: {fileID: 0}
  m_PrefabAsset: {fileID: 0}
  m_GameObject: {fileID: 0}
  m_Enabled: 1
  m_EditorHideFlags: 0
  m_Script: {fileID: 11500000, guid: 95e66c6366d904e98bc83428217d4fd7, type: 3}
  m_Name: CapsuleRotation
  m_EditorClassIdentifier: 
  _data:
    _json: '{"graph":{"variables":{"Kind":"Flow","collection":{"$content":[],"$version":"A"},"$version":"A"},"controlInputDefinitions":[],"controlOutputDefinitions":[],"valueInputDefinitions":[],"valueOutputDefinitions":[],"title":"","summary":"","pan":{"x":137.3307,"y":214.7456},"zoom":0.9,"elements":[{"coroutine":false,"defaultValues":{},"position":{"x":-236.0,"y":44.0},"guid":"03eee2a2-39ec-4d07-8648-d49d4ec92ff0","$version":"A","$type":"Unity.VisualScripting.Update","$id":"9"},{"chainable":false,"parameterNames":["vector","maxLength"],"member":{"name":"ClampMagnitude","parameterTypes":["UnityEngine.Vector3","System.Single"],"targetType":"UnityEngine.Vector3","targetTypeName":"UnityEngine.Vector3","$version":"A"},"defaultValues":{"%vector":{"x":0.0,"y":0.0,"z":0.0,"$type":"UnityEngine.Vector3"},"%maxLength":{"$content":1.0,"$type":"System.Single"}},"position":{"x":52.0,"y":7.0},"guid":"3def2715-7043-49a6-95b0-de7541211dee","$version":"A","$type":"Unity.VisualScripting.InvokeMember","$id":"11"},{"specifyFallback":false,"kind":"Object","defaultValues":{"name":{"$content":"RotationAxis","$type":"System.String"},"object":null},"position":{"x":-252.0,"y":170.0},"guid":"4cc85583-58db-4c43-83ba-9f29f958b942","$version":"A","$type":"Unity.VisualScripting.GetVariable","$id":"15"},{"specifyFallback":false,"kind":"Object","defaultValues":{"name":{"$content":"RotationSpeed","$type":"System.String"},"object":null},"position":{"x":-9.0,"y":180.0},"guid":"b805de4b-f7ce-4c38-a9f6-bc270ded5125","$version":"A","$type":"Unity.VisualScripting.GetVariable","$id":"17"},{"member":{"name":"deltaTime","parameterTypes":null,"targetType":"UnityEngine.Time","targetTypeName":"UnityEngine.Time","$version":"A"},"defaultValues":{},"position":{"x":-228.0,"y":344.0},"guid":"4905df37-66a8-4ac5-8649-f57f39c67d8b","$version":"A","$type":"Unity.VisualScripting.GetMember","$id":"19"},{"defaultValues":{},"position":{"x":228.0,"y":217.0},"guid":"ebab811b-ba89-4129-9717-035e499b162c","$version":"A","$type":"Unity.VisualScripting.GenericMultiply","$id":"22"},{"defaultValues":{},"position":{"x":300.0,"y":118.0},"guid":"0b53cd82-3062-455e-a429-54c0e735ec04","$version":"A","$type":"Unity.VisualScripting.GenericMultiply","$id":"24"},{"chainable":false,"parameterNames":["eulers"],"member":{"name":"Rotate","parameterTypes":["UnityEngine.Vector3"],"targetType":"UnityEngine.Transform","targetTypeName":"UnityEngine.Transform","$version":"A"},"defaultValues":{"target":null,"%eulers":{"x":0.0,"y":0.0,"z":0.0,"$type":"UnityEngine.Vector3"}},"position":{"x":433.0,"y":56.0},"guid":"ee8e0bb5-9508-4134-9ca6-6ca0d1df752c","$version":"A","$type":"Unity.VisualScripting.InvokeMember","$id":"26"},{"sourceUnit":{"$ref":"9"},"sourceKey":"trigger","destinationUnit":{"$ref":"11"},"destinationKey":"enter","guid":"d790615d-29e9-478b-8cab-edfcdbc136a9","$type":"Unity.VisualScripting.ControlConnection"},{"sourceUnit":{"$ref":"11"},"sourceKey":"exit","destinationUnit":{"$ref":"26"},"destinationKey":"enter","guid":"902c0073-c669-43a9-b65a-8118b5c94005","$type":"Unity.VisualScripting.ControlConnection"},{"sourceUnit":{"$ref":"15"},"sourceKey":"value","destinationUnit":{"$ref":"11"},"destinationKey":"%vector","guid":"c152ea58-1747-47cb-92d2-1b22e86385f0","$type":"Unity.VisualScripting.ValueConnection"},{"sourceUnit":{"$ref":"19"},"sourceKey":"value","destinationUnit":{"$ref":"22"},"destinationKey":"b","guid":"2b41b6be-daa1-4ed9-be26-e86715c37fed","$type":"Unity.VisualScripting.ValueConnection"},{"sourceUnit":{"$ref":"17"},"sourceKey":"value","destinationUnit":{"$ref":"22"},"destinationKey":"a","guid":"29345c0d-d02b-4e9b-a870-2ca7d04ff48a","$type":"Unity.VisualScripting.ValueConnection"},{"sourceUnit":{"$ref":"22"},"sourceKey":"product","destinationUnit":{"$ref":"24"},"destinationKey":"b","guid":"bfb07721-271b-46d2-87fa-d36969434e3c","$type":"Unity.VisualScripting.ValueConnection"},{"sourceUnit":{"$ref":"11"},"sourceKey":"result","destinationUnit":{"$ref":"24"},"destinationKey":"a","guid":"a99dc62b-4b74-4311-bc0b-04e414a72980","$type":"Unity.VisualScripting.ValueConnection"},{"sourceUnit":{"$ref":"24"},"sourceKey":"product","destinationUnit":{"$ref":"26"},"destinationKey":"%eulers","guid":"2ae81023-fe7f-4d73-a402-2d812fa74c36","$type":"Unity.VisualScripting.ValueConnection"}],"$version":"A"}}'
    _objectReferences: []
