%YAML 1.1
%TAG !u! tag:unity3d.com,2011:
--- !u!114 &11400000
MonoBehaviour:
  m_ObjectHideFlags: 0
  m_CorrespondingSourceObject: {fileID: 0}
  m_PrefabInstance: {fileID: 0}
  m_PrefabAsset: {fileID: 0}
  m_GameObject: {fileID: 0}
  m_Enabled: 1
  m_EditorHideFlags: 0
  m_Script: {fileID: 11500000, guid: 95e66c6366d904e98bc83428217d4fd7, type: 3}
  m_Name: PlayerTankController
  m_EditorClassIdentifier: 
  _data:
    _json: '{"graph":{"variables":{"Kind":"Flow","collection":{"$content":[{"name":"AngularSpeed","value":{"$content":2.0,"$type":"System.Single"},"typeHandle":{"Identification":"System.Single,
      mscorlib, Version=4.0.0.0, Culture=neutral, PublicKeyToken=b77a5c561934e089","$version":"A"},"$version":"A"}],"$version":"A"},"$version":"A"},"controlInputDefinitions":[],"controlOutputDefinitions":[],"valueInputDefinitions":[],"valueOutputDefinitions":[],"title":null,"summary":null,"pan":{"x":379.2487,"y":1087.937},"zoom":0.3,"elements":[{"coroutine":false,"defaultValues":{},"position":{"x":-495.0,"y":-173.0},"guid":"3749183d-af68-42fc-8ef7-64d2e1fbbe91","$version":"A","$type":"Unity.VisualScripting.Update","$id":"10"},{"specifyFallback":false,"kind":"Graph","defaultValues":{"name":{"$content":"AngularSpeed","$type":"System.String"}},"position":{"x":-320.0,"y":439.0},"guid":"2d91cb24-bda9-438d-9b9e-675616ad1212","$version":"A","$type":"Unity.VisualScripting.GetVariable","$id":"12"},{"defaultValues":{},"position":{"x":258.0,"y":-30.0},"guid":"545ca7f6-a9d3-47c3-b7f2-a7fb361c3e9e","$version":"A","$type":"Unity.VisualScripting.GenericMultiply","$id":"14"},{"defaultValues":{},"position":{"x":88.0,"y":70.0},"guid":"7deac933-104c-4cb8-9f91-c56e11df0ddf","$version":"A","$type":"Unity.VisualScripting.GenericMultiply","$id":"16"},{"member":{"name":"deltaTime","parameterTypes":null,"targetType":"UnityEngine.Time","targetTypeName":"UnityEngine.Time","$version":"A"},"defaultValues":{},"position":{"x":-94.0,"y":153.0},"guid":"0fdcc744-acff-4192-b10e-80c256db612c","$version":"A","$type":"Unity.VisualScripting.GetMember","$id":"18"},{"specifyFallback":false,"kind":"Graph","defaultValues":{"name":{"$content":"AngularSpeed","$type":"System.String"}},"position":{"x":-118.0,"y":0.0},"guid":"5a2a6697-f1ce-409e-a0e5-ac06dddda8d3","$version":"A","$type":"Unity.VisualScripting.GetVariable","$id":"21"},{"chainable":false,"parameterNames":["key"],"member":{"name":"GetKey","parameterTypes":["UnityEngine.KeyCode"],"targetType":"UnityEngine.Input","targetTypeName":"UnityEngine.Input","$version":"A"},"defaultValues":{"%key":{"$content":"A","$type":"UnityEngine.KeyCode"}},"position":{"x":-231.0,"y":-191.0},"guid":"13883e2a-b570-4ece-bead-25055b4c9690","$version":"A","$type":"Unity.VisualScripting.InvokeMember","$id":"23"},{"member":{"name":"up","parameterTypes":null,"targetType":"UnityEngine.Vector3","targetTypeName":"UnityEngine.Vector3","$version":"A"},"defaultValues":{},"position":{"x":97.0,"y":-70.0},"guid":"15e6ca3d-99f6-4944-b7bc-a1ee51fc78e7","$version":"A","$type":"Unity.VisualScripting.GetMember","$id":"27"},{"defaultValues":{},"position":{"x":-34.0,"y":-194.0},"guid":"1c7aa668-1918-46da-a40f-4da19d152709","$version":"A","$type":"Unity.VisualScripting.If","$id":"30"},{"chainable":false,"parameterNames":["eulers"],"member":{"name":"Rotate","parameterTypes":["UnityEngine.Vector3"],"targetType":"UnityEngine.Transform","targetTypeName":"UnityEngine.Transform","$version":"A"},"defaultValues":{"target":null,"%eulers":{"x":0.0,"y":0.0,"z":0.0,"$type":"UnityEngine.Vector3"}},"position":{"x":385.0,"y":-200.0},"guid":"8fc5c3c5-6154-4355-a4cf-20b926cc1a51","$version":"A","$type":"Unity.VisualScripting.InvokeMember","$id":"32"},{"defaultValues":{},"position":{"x":56.0,"y":409.0},"guid":"c2a7b72f-fc44-4f70-a692-98213fda8489","$version":"A","$type":"Unity.VisualScripting.GenericMultiply","$id":"36"},{"defaultValues":{},"position":{"x":-114.0,"y":509.0},"guid":"c45e0933-aba4-409a-9ffc-3d84a9b5cfee","$version":"A","$type":"Unity.VisualScripting.GenericMultiply","$id":"38"},{"member":{"name":"forward","parameterTypes":null,"targetType":"UnityEngine.Vector3","targetTypeName":"UnityEngine.Vector3","$version":"A"},"defaultValues":{},"position":{"x":139.0,"y":856.0},"guid":"8e848c56-43c0-4feb-b3a2-1dd9b583ea5d","$version":"A","$type":"Unity.VisualScripting.GetMember","$id":"40"},{"chainable":false,"parameterNames":["eulers"],"member":{"name":"Rotate","parameterTypes":["UnityEngine.Vector3"],"targetType":"UnityEngine.Transform","targetTypeName":"UnityEngine.Transform","$version":"A"},"defaultValues":{"target":null,"%eulers":{"x":0.0,"y":0.0,"z":0.0,"$type":"UnityEngine.Vector3"}},"position":{"x":427.0,"y":726.0},"guid":"df3c381f-dcb0-4b56-a604-fdf9244a07eb","$version":"A","$type":"Unity.VisualScripting.InvokeMember","$id":"43"},{"chainable":false,"parameterNames":["key"],"member":{"name":"GetKey","parameterTypes":["UnityEngine.KeyCode"],"targetType":"UnityEngine.Input","targetTypeName":"UnityEngine.Input","$version":"A"},"defaultValues":{"%key":{"$content":"S","$type":"UnityEngine.KeyCode"}},"position":{"x":-433.0,"y":248.0},"guid":"8f8407f4-29b3-4403-928d-e6a3f4d99a31","$version":"A","$type":"Unity.VisualScripting.InvokeMember","$id":"47"},{"member":{"name":"up","parameterTypes":null,"targetType":"UnityEngine.Vector3","targetTypeName":"UnityEngine.Vector3","$version":"A"},"defaultValues":{},"position":{"x":-105.0,"y":369.0},"guid":"77c441e2-0d7a-408c-8052-6834e9b87b44","$version":"A","$type":"Unity.VisualScripting.GetMember","$id":"51"},{"defaultValues":{},"position":{"x":-236.0,"y":245.0},"guid":"0ec306fd-0ec7-4a71-9bc5-44fe6740fe96","$version":"A","$type":"Unity.VisualScripting.If","$id":"54"},{"chainable":false,"parameterNames":["eulers"],"member":{"name":"Rotate","parameterTypes":["UnityEngine.Vector3"],"targetType":"UnityEngine.Transform","targetTypeName":"UnityEngine.Transform","$version":"A"},"defaultValues":{"target":null,"%eulers":{"x":0.0,"y":0.0,"z":0.0,"$type":"UnityEngine.Vector3"}},"position":{"x":183.0,"y":239.0},"guid":"7b7afafb-81d8-4524-8f23-5771fa1fd3be","$version":"A","$type":"Unity.VisualScripting.InvokeMember","$id":"56"},{"defaultValues":{},"position":{"x":300.0,"y":896.0},"guid":"25f25722-a45d-45c0-aa56-1a923c0783c0","$version":"A","$type":"Unity.VisualScripting.GenericMultiply","$id":"60"},{"defaultValues":{},"position":{"x":130.0,"y":996.0},"guid":"3250b086-4752-4a61-9f31-88ada37eca7b","$version":"A","$type":"Unity.VisualScripting.GenericMultiply","$id":"62"},{"member":{"name":"deltaTime","parameterTypes":null,"targetType":"UnityEngine.Time","targetTypeName":"UnityEngine.Time","$version":"A"},"defaultValues":{},"position":{"x":-52.0,"y":1080.0},"guid":"b1de02dc-ff37-4c01-8c08-2f75fb28c558","$version":"A","$type":"Unity.VisualScripting.GetMember","$id":"64"},{"specifyFallback":false,"kind":"Graph","defaultValues":{"name":{"$content":"AngularSpeed","$type":"System.String"}},"position":{"x":-76.0,"y":926.0},"guid":"cbdc1e74-96ff-41ff-ba6e-873fc59491c3","$version":"A","$type":"Unity.VisualScripting.GetVariable","$id":"67"},{"chainable":false,"parameterNames":["key"],"member":{"name":"GetKey","parameterTypes":["UnityEngine.KeyCode"],"targetType":"UnityEngine.Input","targetTypeName":"UnityEngine.Input","$version":"A"},"defaultValues":{"%key":{"$content":"W","$type":"UnityEngine.KeyCode"}},"position":{"x":-189.0,"y":736.0},"guid":"b69af0ce-d9e5-4bc6-8887-854e2f6bdbdb","$version":"A","$type":"Unity.VisualScripting.InvokeMember","$id":"69"},{"defaultValues":{},"position":{"x":8.0,"y":732.0},"guid":"c9e536a7-80f4-4038-9714-d2e1fb9a4ce2","$version":"A","$type":"Unity.VisualScripting.If","$id":"73"},{"member":{"name":"deltaTime","parameterTypes":null,"targetType":"UnityEngine.Time","targetTypeName":"UnityEngine.Time","$version":"A"},"defaultValues":{},"position":{"x":-296.0,"y":592.0},"guid":"575dd546-6cea-46e4-aaad-6f14bd268fb7","$version":"A","$type":"Unity.VisualScripting.GetMember","$id":"75"},{"chainable":false,"parameterNames":["eulers"],"member":{"name":"Rotate","parameterTypes":["UnityEngine.Vector3"],"targetType":"UnityEngine.Transform","targetTypeName":"UnityEngine.Transform","$version":"A"},"defaultValues":{"target":null,"%eulers":{"x":0.0,"y":0.0,"z":0.0,"$type":"UnityEngine.Vector3"}},"position":{"x":326.0,"y":1262.0},"guid":"b682fbbc-69b6-4375-9e7b-a11930db97d7","$version":"A","$type":"Unity.VisualScripting.InvokeMember","$id":"78"},{"defaultValues":{},"position":{"x":199.0,"y":1432.0},"guid":"3b42d504-aea3-4536-a9e1-f778fb185079","$version":"A","$type":"Unity.VisualScripting.GenericMultiply","$id":"82"},{"defaultValues":{},"position":{"x":29.0,"y":1532.0},"guid":"7b87d160-8480-4ec5-b4e4-f67a8f85e13b","$version":"A","$type":"Unity.VisualScripting.GenericMultiply","$id":"84"},{"member":{"name":"deltaTime","parameterTypes":null,"targetType":"UnityEngine.Time","targetTypeName":"UnityEngine.Time","$version":"A"},"defaultValues":{},"position":{"x":-153.0,"y":1616.0},"guid":"a34f5042-18cc-49fa-b201-c3e3a4cf4ba1","$version":"A","$type":"Unity.VisualScripting.GetMember","$id":"86"},{"specifyFallback":false,"kind":"Graph","defaultValues":{"name":{"$content":"AngularSpeed","$type":"System.String"}},"position":{"x":-177.0,"y":1462.0},"guid":"95e58394-b364-41e0-bf27-9f8385a975b5","$version":"A","$type":"Unity.VisualScripting.GetVariable","$id":"89"},{"chainable":false,"parameterNames":["key"],"member":{"name":"GetKey","parameterTypes":["UnityEngine.KeyCode"],"targetType":"UnityEngine.Input","targetTypeName":"UnityEngine.Input","$version":"A"},"defaultValues":{"%key":{"$content":"D","$type":"UnityEngine.KeyCode"}},"position":{"x":-290.0,"y":1272.0},"guid":"44c80d26-fc76-4885-8f16-fedc24a1f6d4","$version":"A","$type":"Unity.VisualScripting.InvokeMember","$id":"91"},{"defaultValues":{},"position":{"x":-93.0,"y":1268.0},"guid":"320e82a8-7071-4923-921d-4050341a9372","$version":"A","$type":"Unity.VisualScripting.If","$id":"95"},{"member":{"name":"back","parameterTypes":null,"targetType":"UnityEngine.Vector3","targetTypeName":"UnityEngine.Vector3","$version":"A"},"defaultValues":{},"position":{"x":38.0,"y":1392.0},"guid":"d02a5364-9f0b-4e0a-9bb9-bfcc2c546da9","$version":"A","$type":"Unity.VisualScripting.GetMember","$id":"97"},{"sourceUnit":{"$ref":"10"},"sourceKey":"trigger","destinationUnit":{"$ref":"23"},"destinationKey":"enter","guid":"3341ab5d-ebc8-40b3-b1ec-04815df5d35a","$type":"Unity.VisualScripting.ControlConnection"},{"sourceUnit":{"$ref":"23"},"sourceKey":"exit","destinationUnit":{"$ref":"30"},"destinationKey":"enter","guid":"1232328f-5fdd-4f8b-9c59-424143f53ee5","$type":"Unity.VisualScripting.ControlConnection"},{"sourceUnit":{"$ref":"30"},"sourceKey":"ifFalse","destinationUnit":{"$ref":"32"},"destinationKey":"enter","guid":"e80a52cc-ada1-407d-afe2-9bf179633c20","$type":"Unity.VisualScripting.ControlConnection"},{"sourceUnit":{"$ref":"47"},"sourceKey":"exit","destinationUnit":{"$ref":"54"},"destinationKey":"enter","guid":"a1ec0360-b094-4e63-8267-07db66720083","$type":"Unity.VisualScripting.ControlConnection"},{"sourceUnit":{"$ref":"54"},"sourceKey":"ifFalse","destinationUnit":{"$ref":"56"},"destinationKey":"enter","guid":"9c2b109a-cbac-4a41-b63f-2aa9812291aa","$type":"Unity.VisualScripting.ControlConnection"},{"sourceUnit":{"$ref":"69"},"sourceKey":"exit","destinationUnit":{"$ref":"73"},"destinationKey":"enter","guid":"bae30144-66c8-4830-b903-6f1067f58d6b","$type":"Unity.VisualScripting.ControlConnection"},{"sourceUnit":{"$ref":"73"},"sourceKey":"ifFalse","destinationUnit":{"$ref":"43"},"destinationKey":"enter","guid":"fcdae0ae-b4ab-4cdc-a76f-18520dc7356c","$type":"Unity.VisualScripting.ControlConnection"},{"sourceUnit":{"$ref":"95"},"sourceKey":"ifFalse","destinationUnit":{"$ref":"78"},"destinationKey":"enter","guid":"01eb1396-2913-4a1c-94d3-dbc837c4fb37","$type":"Unity.VisualScripting.ControlConnection"},{"sourceUnit":{"$ref":"91"},"sourceKey":"exit","destinationUnit":{"$ref":"95"},"destinationKey":"enter","guid":"96d4795a-ce7d-4bdc-a71a-6876e14f74cd","$type":"Unity.VisualScripting.ControlConnection"},{"sourceUnit":{"$ref":"30"},"sourceKey":"ifTrue","destinationUnit":{"$ref":"47"},"destinationKey":"enter","guid":"3e698468-da56-4d9a-941c-e03778f0e5ed","$type":"Unity.VisualScripting.ControlConnection"},{"sourceUnit":{"$ref":"54"},"sourceKey":"ifTrue","destinationUnit":{"$ref":"69"},"destinationKey":"enter","guid":"743522b6-5742-40c4-8766-1ede5ca1dc9b","$type":"Unity.VisualScripting.ControlConnection"},{"sourceUnit":{"$ref":"73"},"sourceKey":"ifTrue","destinationUnit":{"$ref":"91"},"destinationKey":"enter","guid":"eb8f66ea-1718-4e17-8a87-82cf8cbe3578","$type":"Unity.VisualScripting.ControlConnection"},{"sourceUnit":{"$ref":"51"},"sourceKey":"value","destinationUnit":{"$ref":"36"},"destinationKey":"a","guid":"7705c526-acce-4af4-b7c2-0433ef971896","$type":"Unity.VisualScripting.ValueConnection"},{"sourceUnit":{"$ref":"47"},"sourceKey":"result","destinationUnit":{"$ref":"54"},"destinationKey":"condition","guid":"cdc27ece-78d6-458a-b9e3-8ee63167c78e","$type":"Unity.VisualScripting.ValueConnection"},{"sourceUnit":{"$ref":"14"},"sourceKey":"product","destinationUnit":{"$ref":"32"},"destinationKey":"%eulers","guid":"e010864e-064a-48af-963b-50c2993321ad","$type":"Unity.VisualScripting.ValueConnection"},{"sourceUnit":{"$ref":"21"},"sourceKey":"value","destinationUnit":{"$ref":"16"},"destinationKey":"a","guid":"26fab807-b3e2-4e76-bbe4-b40f5af7de03","$type":"Unity.VisualScripting.ValueConnection"},{"sourceUnit":{"$ref":"16"},"sourceKey":"product","destinationUnit":{"$ref":"14"},"destinationKey":"b","guid":"8b8957a8-5068-4eb9-b86d-1da572094be4","$type":"Unity.VisualScripting.ValueConnection"},{"sourceUnit":{"$ref":"23"},"sourceKey":"result","destinationUnit":{"$ref":"30"},"destinationKey":"condition","guid":"0a2954c4-a2ee-44e4-b12b-c15506c50abd","$type":"Unity.VisualScripting.ValueConnection"},{"sourceUnit":{"$ref":"27"},"sourceKey":"value","destinationUnit":{"$ref":"14"},"destinationKey":"a","guid":"5bc700ba-82aa-4250-be2f-87f7c5ce6e77","$type":"Unity.VisualScripting.ValueConnection"},{"sourceUnit":{"$ref":"64"},"sourceKey":"value","destinationUnit":{"$ref":"62"},"destinationKey":"b","guid":"23db96bb-8d32-4436-b07e-696cd82af0fa","$type":"Unity.VisualScripting.ValueConnection"},{"sourceUnit":{"$ref":"60"},"sourceKey":"product","destinationUnit":{"$ref":"43"},"destinationKey":"%eulers","guid":"e2a5d9f2-99c3-4ded-b08c-fc26980ace32","$type":"Unity.VisualScripting.ValueConnection"},{"sourceUnit":{"$ref":"18"},"sourceKey":"value","destinationUnit":{"$ref":"16"},"destinationKey":"b","guid":"f98cd6cc-24cb-44ad-87b3-c2e55c0e51f2","$type":"Unity.VisualScripting.ValueConnection"},{"sourceUnit":{"$ref":"62"},"sourceKey":"product","destinationUnit":{"$ref":"60"},"destinationKey":"b","guid":"07ab5286-8d98-4b5b-89ec-46fb966e095b","$type":"Unity.VisualScripting.ValueConnection"},{"sourceUnit":{"$ref":"75"},"sourceKey":"value","destinationUnit":{"$ref":"38"},"destinationKey":"b","guid":"d4543fe6-11eb-46f6-82bd-3159cc2a5f24","$type":"Unity.VisualScripting.ValueConnection"},{"sourceUnit":{"$ref":"12"},"sourceKey":"value","destinationUnit":{"$ref":"38"},"destinationKey":"a","guid":"4b7aef47-375a-4e68-ac86-8ce663fb0463","$type":"Unity.VisualScripting.ValueConnection"},{"sourceUnit":{"$ref":"36"},"sourceKey":"product","destinationUnit":{"$ref":"56"},"destinationKey":"%eulers","guid":"8caa8051-ecd1-4488-817e-c302cc79fc8a","$type":"Unity.VisualScripting.ValueConnection"},{"sourceUnit":{"$ref":"38"},"sourceKey":"product","destinationUnit":{"$ref":"36"},"destinationKey":"b","guid":"56f81052-65f4-4578-a74f-54175e688e48","$type":"Unity.VisualScripting.ValueConnection"},{"sourceUnit":{"$ref":"69"},"sourceKey":"result","destinationUnit":{"$ref":"73"},"destinationKey":"condition","guid":"77685b8c-e63c-4101-a6f1-0f69807c4454","$type":"Unity.VisualScripting.ValueConnection"},{"sourceUnit":{"$ref":"67"},"sourceKey":"value","destinationUnit":{"$ref":"62"},"destinationKey":"a","guid":"e9fe2f09-c96f-46c8-922d-104d6e8316c2","$type":"Unity.VisualScripting.ValueConnection"},{"sourceUnit":{"$ref":"40"},"sourceKey":"value","destinationUnit":{"$ref":"60"},"destinationKey":"a","guid":"30ebc055-4af4-47a0-86b9-f928dad6fa40","$type":"Unity.VisualScripting.ValueConnection"},{"sourceUnit":{"$ref":"82"},"sourceKey":"product","destinationUnit":{"$ref":"78"},"destinationKey":"%eulers","guid":"996f8579-7665-4406-a10d-f48670f679f5","$type":"Unity.VisualScripting.ValueConnection"},{"sourceUnit":{"$ref":"84"},"sourceKey":"product","destinationUnit":{"$ref":"82"},"destinationKey":"b","guid":"e6871125-3d63-470f-a99c-bc53528d7906","$type":"Unity.VisualScripting.ValueConnection"},{"sourceUnit":{"$ref":"89"},"sourceKey":"value","destinationUnit":{"$ref":"84"},"destinationKey":"a","guid":"ccae5d9b-e9ba-4acc-aa4b-df450de733f4","$type":"Unity.VisualScripting.ValueConnection"},{"sourceUnit":{"$ref":"86"},"sourceKey":"value","destinationUnit":{"$ref":"84"},"destinationKey":"b","guid":"f76b4307-a077-46a0-af24-259a5f84947a","$type":"Unity.VisualScripting.ValueConnection"},{"sourceUnit":{"$ref":"91"},"sourceKey":"result","destinationUnit":{"$ref":"95"},"destinationKey":"condition","guid":"bca86b34-1434-43aa-ab5e-5be4cfe64243","$type":"Unity.VisualScripting.ValueConnection"},{"sourceUnit":{"$ref":"97"},"sourceKey":"value","destinationUnit":{"$ref":"82"},"destinationKey":"a","guid":"f1f25a04-83d4-4927-a304-61554b40b227","$type":"Unity.VisualScripting.ValueConnection"}],"$version":"A"}}'
    _objectReferences: []
