%YAML 1.1
%TAG !u! tag:unity3d.com,2011:
--- !u!114 &11400000
MonoBehaviour:
  m_ObjectHideFlags: 0
  m_CorrespondingSourceObject: {fileID: 0}
  m_PrefabInstance: {fileID: 0}
  m_PrefabAsset: {fileID: 0}
  m_GameObject: {fileID: 0}
  m_Enabled: 1
  m_EditorHideFlags: 0
  m_Script: {fileID: 11500000, guid: 95e66c6366d904e98bc83428217d4fd7, type: 3}
  m_Name: Hello World!
  m_EditorClassIdentifier: 
  _data:
    _json: '{"graph":{"variables":{"Kind":"Flow","collection":{"$content":[],"$version":"A"},"$version":"A"},"controlInputDefinitions":[],"controlOutputDefinitions":[],"valueInputDefinitions":[],"valueOutputDefinitions":[],"title":null,"summary":null,"pan":{"x":0.0,"y":15.0},"zoom":1.0,"elements":[{"coroutine":false,"defaultValues":{},"position":{"x":-204.0,"y":-144.0},"guid":"8731020e-baa2-42d3-ab68-baaca3e5458c","$version":"A","$type":"Unity.VisualScripting.Start","$id":"9"},{"chainable":false,"parameterNames":["message"],"member":{"name":"print","parameterTypes":["System.Object"],"targetType":"UnityEngine.MonoBehaviour","targetTypeName":"UnityEngine.MonoBehaviour","$version":"A"},"defaultValues":{},"position":{"x":85.0,"y":-52.0},"guid":"0987b525-c6f4-409a-82a2-7551b55c5f9e","$version":"A","$type":"Unity.VisualScripting.InvokeMember","$id":"11"},{"type":"System.String","value":{"$content":"Hello
      World!","$type":"System.String"},"defaultValues":{},"position":{"x":-186.0,"y":20.0},"guid":"c01df72d-8dcc-441f-8a45-7e188057ff08","$version":"A","$type":"Unity.VisualScripting.Literal","$id":"15"},{"sourceUnit":{"$ref":"9"},"sourceKey":"trigger","destinationUnit":{"$ref":"11"},"destinationKey":"enter","guid":"3293599e-da7d-4228-9b64-dc2b75ee826f","$type":"Unity.VisualScripting.ControlConnection"},{"sourceUnit":{"$ref":"15"},"sourceKey":"output","destinationUnit":{"$ref":"11"},"destinationKey":"%message","guid":"64abae9f-f50b-4050-85bc-b558417466c6","$type":"Unity.VisualScripting.ValueConnection"}],"$version":"A"}}'
    _objectReferences: []
